[Project Header]
Version = 1200
CVI Dir = "/c/program files (x86)/national instruments/cvi2012"
CVI Shared Dir = "/C/Program Files (x86)/National Instruments/Shared/CVI"
CVI Pub Local Dir = "/C/ProgramData/National Instruments/CVI2012"
CVI Pub Global Dir = "/C/ProgramData/National Instruments/CVI"
IVI Standard Root Dir = "/C/Program Files (x86)/IVI Foundation/IVI"
VXIplug&play Framework Dir = "/C/Program Files (x86)/IVI Foundation/VISA/winnt"
IVI Standard Root 64-bit Dir = "/C/Program Files/IVI Foundation/IVI"
VXIplug&play Framework 64-bit Dir = "/C/Program Files/IVI Foundation/VISA/win64"
Number of Files = 9
Target Type = "Dynamic Link Library"
Flags = 2064
Copied From Locked InstrDrv Directory = False
Copied from VXIPNP Directory = False
Locked InstrDrv Name = ""
Don't Display Deploy InstrDrv Dialog = False

[File 0001]
File Type = "Library"
Res Id = 1
Path Is Rel = True
Path Rel To = "CVI"
Path Rel To Override = "CVI"
Path Rel Path = "sdk/lib/msvc/AdvAPI32.lib"
Path = "/c/program files (x86)/national instruments/cvi2012/sdk/lib/msvc/AdvAPI32.lib"
Exclude = False
Project Flags = 0
Folder = "Not In A Folder"

[File 0002]
File Type = "CSource"
Res Id = 2
Path Is Rel = True
Path Rel To = "Project"
Path Rel Path = "login.c"
Exclude = False
Compile Into Object File = False
Project Flags = 0
Folder = "Source Files"

[File 0003]
File Type = "Function Panel"
Res Id = 3
Path Is Rel = True
Path Rel To = "CVI"
Path Rel To Override = "CVI"
Path Rel Path = "toolslib/toolbox/toolbox.fp"
Exclude = False
Project Flags = 0
Folder = "Instrument Files"

[File 0004]
File Type = "Function Panel"
Res Id = 4
Path Is Rel = True
Path Rel To = "CVI"
Path Rel To Override = "CVI Shared"
Path Rel Path = "instr/TestStand/API/tsapicvi.fp"
Exclude = False
Project Flags = 0
Folder = "Instrument Files"

[File 0005]
File Type = "Include"
Res Id = 5
Path Is Rel = True
Path Rel To = "CVI"
Path Rel To Override = "CVI Shared"
Path Rel Path = "instr/TestStand/API/tsapicvi.h"
Exclude = False
Project Flags = 0
Folder = "Include Files"

[File 0006]
File Type = "Function Panel"
Res Id = 6
Path Is Rel = True
Path Rel To = "CVI"
Path Rel To Override = "CVI Shared"
Path Rel Path = "instr/TestStand/API/tsui.fp"
Exclude = False
Project Flags = 0
Folder = "Instrument Files"

[File 0007]
File Type = "Function Panel"
Res Id = 7
Path Is Rel = True
Path Rel To = "CVI"
Path Rel To Override = "CVI Shared"
Path Rel Path = "instr/TestStand/API/tsuisupp.fp"
Exclude = False
Project Flags = 0
Folder = "Instrument Files"

[File 0008]
File Type = "Function Panel"
Res Id = 8
Path Is Rel = True
Path Rel To = "CVI"
Path Rel To Override = "CVI Shared"
Path Rel Path = "instr/TestStand/API/tsutil.fp"
Exclude = False
Project Flags = 0
Folder = "Instrument Files"

[File 0009]
File Type = "Include"
Res Id = 9
Path Is Rel = True
Path Rel To = "CVI"
Path Rel To Override = "CVI Shared"
Path Rel Path = "instr/TestStand/API/tsutil.h"
Exclude = False
Project Flags = 0
Folder = "Include Files"

[Folders]
User Interface Files Folder Not Added Yet = True
Library Files Folder Not Added Yet = True
Folder 0 = "Source Files"
Folder 1 = "Instrument Files"
Folder 2 = "Include Files"

[Custom Build Configs]
Num Custom Build Configs = 0

[Default Build Config Debug]
Config Name = "Debug"
Is 64-Bit = False
Is Release = False
Default Calling Convention = "cdecl"
Uninitialized Locals Compile Warning = "Conservative"
Require Prototypes = True
Require Return Values = True
Enable Pointer Mismatch Warning = False
Enable Unreachable Code Warning = False
Enable Unreferenced Identifiers Warning = False
Enable Assignment In Conditional Warning = False
Enable C99 Extensions = False
Stack Size = 250000
Image Base Address = 4194304
Image Base Address x64 = 4194304
Compiler Defines = "/DWIN32_LEAN_AND_MEAN"
Sign = False
Sign Store = ""
Sign Certificate = ""
Sign Timestamp URL = ""
Sign URL = ""
Manifest Embed = False
Icon File Is Rel = False
Icon File = ""
Application Title = ""
DLL Import Library Choice = "Gen Lib For Current Mode"
Use IVI Subdirectories for Import Libraries = False
Use VXIPNP Subdirectories for Import Libraries = False
Use Dflt Import Lib Base Name = True
Where to Copy DLL = "Do not copy"
Custom Directory to Copy DLL Is Rel = False
Custom Directory to Copy DLL = ""
Generate Source Documentation = "None"
Runtime Support = "Full Runtime Support"
Runtime Binding = "Shared"
Embed Project .UIRs = False
Generate Map File = False
Create Console Application = False
Using LoadExternalModule = False
DLL Exports = "Symbols Marked As Export"
Register ActiveX Server = False
Numeric File Version = "3,0,0,8230"
Numeric Prod Version = "3,0,0,8230"
Comments = ""
Comments Ex = ""
Company Name = "[YourCompanyHere]"
Company Name Ex = "[YourCompanyHere]"
File Description = "frontend (Debug x86)"
File Description Ex = "%application (%rel_dbg %arch)"
File Version ="[YourFileVersionHere]"
File Version Ex="[YourFileVersionHere]"
Internal Name = "frontend"
Internal Name Ex = "%basename"
Legal Copyright = "[YourCopyrightHere]"
Legal Copyright Ex = "[YourCopyrightHere]"
Legal Trademarks = ""
Legal Trademarks Ex = ""
Original Filename = "frontend.dll"
Original Filename Ex = "%filename"
Private Build = ""
Private Build Ex = ""
Product Name = "[YourProductNameHere]"
Product Name Ex = "[YourProductNameHere]"
Product Version = "[YourProductVersionHere]"
Product Version Ex = "[YourProductVersionHere]"
Special Build = ""
Special Build Ex = ""
Add Type Lib To DLL = False
Include Type Lib Help Links = False
TLB Help Style = "HLP"
Type Lib FP File Is Rel = False
Type Lib FP File = ""

[Default Build Config Release]
Config Name = "Release"
Is 64-Bit = False
Is Release = True
Default Calling Convention = "cdecl"
Uninitialized Locals Compile Warning = "Conservative"
Require Prototypes = True
Require Return Values = True
Enable Pointer Mismatch Warning = False
Enable Unreachable Code Warning = False
Enable Unreferenced Identifiers Warning = False
Enable Assignment In Conditional Warning = False
Enable C99 Extensions = False
Stack Size = 250000
Image Base Address = 4194304
Image Base Address x64 = 4194304
Compiler Defines = "/DWIN32_LEAN_AND_MEAN"
Sign = False
Sign Store = ""
Sign Certificate = ""
Sign Timestamp URL = ""
Sign URL = ""
Manifest Embed = False
Icon File Is Rel = False
Icon File = ""
Application Title = ""
DLL Import Library Choice = "Gen Lib For Current Mode"
Use IVI Subdirectories for Import Libraries = False
Use VXIPNP Subdirectories for Import Libraries = False
Use Dflt Import Lib Base Name = True
Where to Copy DLL = "Do not copy"
Custom Directory to Copy DLL Is Rel = False
Custom Directory to Copy DLL = ""
Generate Source Documentation = "None"
Runtime Support = "Full Runtime Support"
Runtime Binding = "Shared"
Embed Project .UIRs = False
Generate Map File = False
Create Console Application = False
Using LoadExternalModule = False
DLL Exports = "Symbols Marked As Export"
Register ActiveX Server = False
Numeric File Version = "3,0,0,8230"
Numeric Prod Version = "3,0,0,8230"
Comments = ""
Comments Ex = ""
Company Name = "[YourCompanyHere]"
Company Name Ex = "[YourCompanyHere]"
File Description = "frontend (Release x86)"
File Description Ex = "%application (%rel_dbg %arch)"
File Version ="[YourFileVersionHere]"
File Version Ex="[YourFileVersionHere]"
Internal Name = "frontend"
Internal Name Ex = "%basename"
Legal Copyright = "[YourCopyrightHere]"
Legal Copyright Ex = "[YourCopyrightHere]"
Legal Trademarks = ""
Legal Trademarks Ex = ""
Original Filename = "frontend.dll"
Original Filename Ex = "%filename"
Private Build = ""
Private Build Ex = ""
Product Name = "[YourProductNameHere]"
Product Name Ex = "[YourProductNameHere]"
Product Version = "[YourProductVersionHere]"
Product Version Ex = "[YourProductVersionHere]"
Special Build = ""
Special Build Ex = ""
Add Type Lib To DLL = False
Include Type Lib Help Links = False
TLB Help Style = "HLP"
Type Lib FP File Is Rel = False
Type Lib FP File = ""

[Default Build Config Debug64]
Config Name = "Debug64"
Is 64-Bit = True
Is Release = False
Default Calling Convention = "cdecl"
Uninitialized Locals Compile Warning = "Conservative"
Require Prototypes = True
Require Return Values = True
Enable Pointer Mismatch Warning = False
Enable Unreachable Code Warning = False
Enable Unreferenced Identifiers Warning = False
Enable Assignment In Conditional Warning = False
Enable C99 Extensions = False
Stack Size = 250000
Image Base Address = 4194304
Image Base Address x64 = 4194304
Compiler Defines = "/DWIN32_LEAN_AND_MEAN /DIGNORE_EASYTAB_64BIT_ERROR"
Sign = False
Sign Store = ""
Sign Certificate = ""
Sign Timestamp URL = ""
Sign URL = ""
Manifest Embed = False
Icon File Is Rel = False
Icon File = ""
Application Title = ""
DLL Import Library Choice = "Gen Lib For Current Mode"
Use IVI Subdirectories for Import Libraries = False
Use VXIPNP Subdirectories for Import Libraries = False
Use Dflt Import Lib Base Name = True
Where to Copy DLL = "Do not copy"
Custom Directory to Copy DLL Is Rel = False
Custom Directory to Copy DLL = ""
Generate Source Documentation = "None"
Runtime Support = "Full Runtime Support"
Runtime Binding = "Shared"
Embed Project .UIRs = False
Generate Map File = False
Create Console Application = False
Using LoadExternalModule = False
DLL Exports = "Symbols Marked As Export"
Register ActiveX Server = False
Numeric File Version = "3,0,0,8230"
Numeric Prod Version = "3,0,0,8230"
Comments = ""
Comments Ex = ""
Company Name = "[YourCompanyHere]"
Company Name Ex = "[YourCompanyHere]"
File Description = "frontend (Debug x64)"
File Description Ex = "%application (%rel_dbg %arch)"
File Version ="[YourFileVersionHere]"
File Version Ex="[YourFileVersionHere]"
Internal Name = "frontend"
Internal Name Ex = "%basename"
Legal Copyright = "[YourCopyrightHere]"
Legal Copyright Ex = "[YourCopyrightHere]"
Legal Trademarks = ""
Legal Trademarks Ex = ""
Original Filename = "frontend.dll"
Original Filename Ex = "%filename"
Private Build = ""
Private Build Ex = ""
Product Name = "[YourProductNameHere]"
Product Name Ex = "[YourProductNameHere]"
Product Version = "[YourProductVersionHere]"
Product Version Ex = "[YourProductVersionHere]"
Special Build = ""
Special Build Ex = ""
Add Type Lib To DLL = False
Include Type Lib Help Links = False
TLB Help Style = "HLP"
Type Lib FP File Is Rel = False
Type Lib FP File = ""

[Default Build Config Release64]
Config Name = "Release64"
Is 64-Bit = True
Is Release = True
Default Calling Convention = "cdecl"
Uninitialized Locals Compile Warning = "Conservative"
Require Prototypes = True
Require Return Values = True
Enable Pointer Mismatch Warning = False
Enable Unreachable Code Warning = False
Enable Unreferenced Identifiers Warning = False
Enable Assignment In Conditional Warning = False
Enable C99 Extensions = False
Stack Size = 250000
Image Base Address = 4194304
Image Base Address x64 = 4194304
Compiler Defines = "/DWIN32_LEAN_AND_MEAN /DIGNORE_EASYTAB_64BIT_ERROR"
Sign = False
Sign Store = ""
Sign Certificate = ""
Sign Timestamp URL = ""
Sign URL = ""
Manifest Embed = False
Icon File Is Rel = False
Icon File = ""
Application Title = ""
DLL Import Library Choice = "Gen Lib For Current Mode"
Use IVI Subdirectories for Import Libraries = False
Use VXIPNP Subdirectories for Import Libraries = False
Use Dflt Import Lib Base Name = True
Where to Copy DLL = "Do not copy"
Custom Directory to Copy DLL Is Rel = False
Custom Directory to Copy DLL = ""
Generate Source Documentation = "None"
Runtime Support = "Full Runtime Support"
Runtime Binding = "Shared"
Embed Project .UIRs = False
Generate Map File = False
Create Console Application = False
Using LoadExternalModule = False
DLL Exports = "Symbols Marked As Export"
Register ActiveX Server = False
Numeric File Version = "3,0,0,8230"
Numeric Prod Version = "3,0,0,8230"
Comments = ""
Comments Ex = ""
Company Name = "[YourCompanyHere]"
Company Name Ex = "[YourCompanyHere]"
File Description = "frontend (Release x64)"
File Description Ex = "%application (%rel_dbg %arch)"
File Version ="[YourFileVersionHere]"
File Version Ex="[YourFileVersionHere]"
Internal Name = "frontend"
Internal Name Ex = "%basename"
Legal Copyright = "[YourCopyrightHere]"
Legal Copyright Ex = "[YourCopyrightHere]"
Legal Trademarks = ""
Legal Trademarks Ex = ""
Original Filename = "frontend.dll"
Original Filename Ex = "%filename"
Private Build = ""
Private Build Ex = ""
Product Name = "[YourProductNameHere]"
Product Name Ex = "[YourProductNameHere]"
Product Version = "[YourProductVersionHere]"
Product Version Ex = "[YourProductVersionHere]"
Special Build = ""
Special Build Ex = ""
Add Type Lib To DLL = False
Include Type Lib Help Links = False
TLB Help Style = "HLP"
Type Lib FP File Is Rel = False
Type Lib FP File = ""

[Compiler Options]
Default Calling Convention = "cdecl"
Require Prototypes = True
Require Return Values = True
Enable Pointer Mismatch Warning = False
Enable Unreachable Code Warning = False
Enable Unreferenced Identifiers Warning = False
Enable Assignment In Conditional Warning = False
O Option Compatible With 5.0 = False
Enable C99 Extensions = False
Uninitialized Locals Compile Warning = "Conservative"
Precompile Prefix Header = False
Prefix Header File = ""

[Run Options]
Stack Size = 250000
Image Base Address = 4194304
Image Base Address x64 = 4194304

[Compiler Defines]
Compiler Defines = "/DWIN32_LEAN_AND_MEAN"

[Create Executable]
Executable File_Debug Is Rel = True
Executable File_Debug Rel To = "Project"
Executable File_Debug Rel Path = "win32/frontend.dll"
Executable File_Debug Line0001 = "/c/Autobuild/TSBuild/App/TestStand/Components/Callbacks/FrontEnd/win32/frontend."
Executable File_Debug Line0002 = "dll"
Executable File_Release Is Rel = True
Executable File_Release Rel To = "Project"
Executable File_Release Rel Path = "win32/frontend.dll"
Executable File_Release Line0001 = "/c/Autobuild/TSBuild/App/TestStand/Components/Callbacks/FrontEnd/win32/frontend."
Executable File_Release Line0002 = "dll"
Executable File_Debug64 Is Rel = True
Executable File_Debug64 Rel To = "Project"
Executable File_Debug64 Rel Path = "x64/frontend.dll"
Executable File_Debug64 Line0001 = "/c/Autobuild/TSBuild/App/TestStand/Components/Callbacks/FrontEnd/x64/frontend.dl"
Executable File_Debug64 Line0002 = "l"
Executable File_Release64 Is Rel = True
Executable File_Release64 Rel To = "Project"
Executable File_Release64 Rel Path = "x64/frontend.dll"
Executable File_Release64 Line0001 = "/c/Autobuild/TSBuild/App/TestStand/Components/Callbacks/FrontEnd/x64/frontend.dl"
Executable File_Release64 Line0002 = "l"
Icon File Is Rel = False
Icon File = ""
Application Title = ""
Numeric File Version = "3,0,0,8230"
Numeric Prod Version = "3,0,0,8230"
Comments = ""
Comments Ex = ""
Company Name = "[YourCompanyHere]"
Company Name Ex = "[YourCompanyHere]"
File Description = "frontend (Release x86)"
File Description Ex = "%application (%rel_dbg %arch)"
File Version = "3.0.0.8230"
File Version Ex = "3.0.0.8230"
Internal Name = "frontend"
Internal Name Ex = "%basename"
Legal Copyright = "[YourCopyrightHere]"
Legal Copyright Ex = "[YourCopyrightHere]"
Legal Trademarks = ""
Legal Trademarks Ex = ""
Original Filename = "frontend.dll"
Original Filename Ex = "%filename"
Private Build = ""
Private Build Ex = ""
Product Name = "[YourProductNameHere]"
Product Name Ex = "[YourProductNameHere]"
Product Version = "[YourProductVersionHere]"
Product Version Ex = "[YourProductVersionHere]"
Special Build = ""
Special Build Ex = ""
DLL Exports = "Symbols Marked As Export"
DLL Import Library Choice = "Gen Lib For Current Mode"
Use IVI Subdirectories for Import Libraries = False
Use VXIPNP Subdirectories for Import Libraries = False
Use Dflt Import Lib Base Name = True
Where to Copy DLL = "Do not copy"
Custom Directory to Copy DLL Is Rel = False
Custom Directory to Copy DLL = ""
Generate Source Documentation = "None"
Add Type Lib To DLL = False
Include Type Lib Help Links = False
TLB Help Style = "HLP"
Type Lib FP File Is Rel = False
Type Lib FP File = ""
Type Lib Guid = ""
Runtime Support = "Full Runtime Support"
Instrument Driver Support Only = False
Embed Project .UIRs = False
Generate Map File = False

[External Compiler Support]
UIR Callbacks File Option = 0
Using LoadExternalModule = False
Create Project Symbols File = True
UIR Callbacks Obj File Is Rel = False
UIR Callbacks Obj File = ""
Project Symbols H File Is Rel = False
Project Symbols H File = ""
Project Symbols Obj File Is Rel = False
Project Symbols Obj File = ""

[ActiveX Server Options]
Specification File Is Rel = False
Specification File = ""
Source File Is Rel = False
Source File = ""
Include File Is Rel = False
Include File = ""
IDL File Is Rel = False
IDL File = ""
Register ActiveX Server = False

[Signing Info]
Sign = False
Sign Debug Build = False
Store = ""
Certificate = ""
Timestamp URL = ""
URL = ""

[Manifest Info]
Embed = False

[tpcSection]
tpcEnabled = 0
tpcOverrideEnvironment = 0
tpcEnabled x64 = 0
tpcOverrideEnvironment x64 = 0

